Advanced Use Cases • questionlink
…
What happens under the hood is that QuestionLink performs all steps
for each population, one after the other. If we look at the summarized
recoding tables in the ql_harmonize() object, we see that
we get a recoding table for each question combination, in both
directions, for each population. Note that with count() we
condense the recoding tables down to one line per recoding table,
arriving at 48 recoding tables (and rows): 4 instruments * 4 instruments
* 3 populations = 48.

multi_pop_harmonization_prepared |> 
  ql_harmonize() |> 
  attr("summarized_rec_tbl") |> 
  count(source_question, target_question, population)

## # A tibble: 48 × 4
##    source_question target_question population     n
##    <chr>           <chr>           <chr>      <int>
##  1 A               A               pop_1          5
##  2 A               A               pop_2          5
##  3 A               A               pop_3          5
##  4 A               B               pop_1          5
##  5 A               B               pop_2          5
##  6 A               B               pop_3          5
##  7 A               C               pop_1          5
##  8 A               C               pop_2          5
##  9 A               C               pop_3          5
## 10 A               D               pop_1          5
## # ℹ 38 more rows
…
chain_limit_prep |> 
  attr("data") |> 
  dplyr::group_by(year, question) |> 
  dplyr::summarise() |> 
  dplyr::arrange(year, question) |> 
  dplyr::full_join(question_connections_table)

## # A tibble: 44 × 3
## # Groups:   year [32]
##     year question question_connections
##    <dbl> <chr>    <fct>               
##  1  1985 D        links to some       
##  2  1986 D        links to some       
##  3  1987 D        links to some       
##  4  1988 D        links to some       
##  5  1989 D        links to some       
##  6  1990 D        links to some       
##  7  1991 D        links to some       
##  8  1992 C        links to all        
##  9  1992 D        links to some       
## 10  1993 C        links to all        
## # ℹ 34 more rows
…
